---
http_interactions:
- request:
    method: get
    uri: https://api.pexels.com/v1/search?per_page=1&query=denver
    body:
      encoding: US-ASCII
      string: ''
    headers:
      Authorization:
      - 563492ad6f917000010000019d7d69aab3844196bd79d2bd11a9c63c
      User-Agent:
      - Faraday v2.2.0
      Accept-Encoding:
      - gzip;q=1.0,deflate;q=0.6,identity;q=0.3
      Accept:
      - "*/*"
  response:
    status:
      code: 200
      message: OK
    headers:
      Date:
      - Tue, 26 Apr 2022 21:41:55 GMT
      Content-Type:
      - application/json; charset=utf-8
      Content-Length:
      - '447'
      Connection:
      - keep-alive
      Cf-Ray:
      - 70227c3b0e882f19-DFW
      Cache-Control:
      - max-age=0, private, must-revalidate
      Set-Cookie:
      - __cf_bm=CKCB2AUu4cWsiUdYCaEpE1wDgzIzOAsPSmHlAQhFt8A-1651009315-0-AQnb+GKTy8WxixHTJFNORIZSOPz47hbzEfd+9Hramr9gOcepyyoxrJZ1DMrJyjVWKvjBxTGQ5/vw0RFUCB2Moqo=;
        path=/; expires=Tue, 26-Apr-22 22:11:55 GMT; domain=.pexels.com; HttpOnly;
        Secure; SameSite=None
      - __cf_bm=t0rUbSv6nFeMUeriKTcea1hEzghMLV_gvZ_0SnRTLq8-1650995657-0-AZ2IUjMpQmr+YbiZyYo7VkGFmYc9xvjdwjFWCBezr1YjyjRDbEMiqJgT0X0Zh5IuyAGGKDWIf+RKsbThDvDAwWM=;
        path=/; expires=Tue, 26-Apr-22 18:24:17 GMT; domain=.pexels.com; HttpOnly;
        Secure; SameSite=None
      Vary:
      - Origin, Accept-Encoding
      Cf-Cache-Status:
      - DYNAMIC
      Alt-Svc:
      - h3=":443"; ma=86400, h3-29=":443"; ma=86400
      Expect-Ct:
      - max-age=604800, report-uri="https://report-uri.cloudflare.com/cdn-cgi/beacon/expect-ct"
      X-Frame-Options:
      - SAMEORIGIN
      X-Ratelimit-Limit:
      - '20000'
      X-Ratelimit-Remaining:
      - '19996'
      X-Ratelimit-Reset:
      - '1653515656'
      X-Request-Id:
      - bac2b9b8-0e40-4826-b843-0f2293a1c851
      X-Runtime:
      - '0.110091'
      X-Server:
      - anteater
      X-Tyk-Cached-Response:
      - '1'
      Server:
      - cloudflare
    body:
      encoding: ASCII-8BIT
      string: '{"page":1,"per_page":1,"photos":[{"id":2706750,"width":6240,"height":4160,"url":"https://www.pexels.com/photo/union-station-building-2706750/","photographer":"Thomas
        Ward","photographer_url":"https://www.pexels.com/@thomasleeward","photographer_id":220769,"avg_color":"#777272","src":{"original":"https://images.pexels.com/photos/2706750/pexels-photo-2706750.jpeg","large2x":"https://images.pexels.com/photos/2706750/pexels-photo-2706750.jpeg?auto=compress\u0026cs=tinysrgb\u0026dpr=2\u0026h=650\u0026w=940","large":"https://images.pexels.com/photos/2706750/pexels-photo-2706750.jpeg?auto=compress\u0026cs=tinysrgb\u0026h=650\u0026w=940","medium":"https://images.pexels.com/photos/2706750/pexels-photo-2706750.jpeg?auto=compress\u0026cs=tinysrgb\u0026h=350","small":"https://images.pexels.com/photos/2706750/pexels-photo-2706750.jpeg?auto=compress\u0026cs=tinysrgb\u0026h=130","portrait":"https://images.pexels.com/photos/2706750/pexels-photo-2706750.jpeg?auto=compress\u0026cs=tinysrgb\u0026fit=crop\u0026h=1200\u0026w=800","landscape":"https://images.pexels.com/photos/2706750/pexels-photo-2706750.jpeg?auto=compress\u0026cs=tinysrgb\u0026fit=crop\u0026h=627\u0026w=1200","tiny":"https://images.pexels.com/photos/2706750/pexels-photo-2706750.jpeg?auto=compress\u0026cs=tinysrgb\u0026dpr=1\u0026fit=crop\u0026h=200\u0026w=280"},"liked":false,"alt":"Union
        Station Building"}],"total_results":72,"next_page":"https://api.pexels.com/v1/search/?page=2\u0026per_page=1\u0026query=denver"}'
  recorded_at: Tue, 26 Apr 2022 21:41:55 GMT
recorded_with: VCR 6.1.0
